Innovando la Contratación Pública con Inteligencia Artificial
…
# Pivot data from wide to long
df_sample_long <- dataZ_2 %>%
  pivot_longer(!Year, names_to = "Metrics", values_to = "Values")

# Normalize the numeric columns
df_normalized <- df_sample_long %>% 
  group_by(Metrics) %>% 
  mutate(Values = rescale(Values, to = c(0, 1)))

# Show some of the normalized data
df_normalized %>% 
  slice_head(n = 5)

# A tibble: 25 × 3
# Groups:   Metrics [5]
    Year Metrics  Values
   <dbl> <chr>     <dbl>
 1  2015 CP        0.800
 2  2016 CP        0.474
 3  2017 CP        0.614
 4  2018 CP        0.879
 5  2019 CP        0.591
 6  2015 Gast_SPF  0.858
 7  2016 Gast_SPF  0.874
 8  2017 Gast_SPF  0.825
 9  2018 Gast_SPF  0.928
10  2019 Gast_SPF  0.853
# … with 15 more rows
…
